G09/Verilog/G0905.vcd
$date
	Sun Sep 29 16:42:36 2024
$end
$version
	Icarus Verilog
$end
$timescale
	1s
$end
$scope module G0905 $end
$var wire 1 ! clk $end
$upscope $end
$scope module G0905 $end
$var wire 1 " p1 $end
$upscope $end
$enddefinitions $end
$comment Show the parameter values. $end
$dumpall
$end
#0
$dumpvars
x"
0!
$end
#12
1"
1!
#16
0"
#24
0!
#36
1"
1!
#40
0"
#48
0!
#60
1"
1!
#64
0"
#72
0!
#84
1"
1!
#88
0"
#96
0!
#108
1"
1!
#112
0"
#120
0!
#132
1"
1!
#136
0"
#144
0!
#156
1"
1!
#160
0"
#168
0!
#180
1"
1!
#184
0"
#192
0!
#204
1"
1!
#208
0"
#216
0!
#228
1"
1!
#232
0"
