G09/Verilog/G0904.vcd
$date
	Sun Sep 29 16:42:35 2024
$end
$version
	Icarus Verilog
$end
$timescale
	1s
$end
$scope module G0904 $end
$var wire 1 ! clk $end
$upscope $end
$scope module G0904 $end
$var wire 1 " p1 $end
$upscope $end
$enddefinitions $end
$comment Show the parameter values. $end
$dumpall
$end
#0
$dumpvars
0"
0!
$end
#1
1"
#2
0"
#4
1!
#5
1"
#6
0"
#8
0!
#9
1"
#10
0"
#12
1!
#13
1"
#14
0"
#16
0!
#17
1"
#18
0"
#20
1!
#21
1"
#22
0"
#24
0!
#25
1"
#26
0"
#28
1!
#29
1"
#30
0"
#32
0!
#33
1"
#34
0"
#36
1!
#37
1"
#38
0"
#40
0!
#41
1"
#42
0"
#44
1!
#45
1"
#46
0"
#48
0!
#49
1"
#50
0"
#52
1!
#53
1"
#54
0"
#56
0!
#57
1"
#58
0"
#60
1!
#61
1"
#62
0"
#64
0!
#65
1"
#66
0"
#68
1!
#69
1"
#70
0"
#72
0!
#73
1"
#74
0"
#76
1!
#77
1"
#78
0"
#80
0!
#81
1"
#82
0"
#84
1!
#85
1"
#86
0"
#88
0!
#89
1"
#90
0"
#92
1!
#93
1"
#94
0"
#96
0!
#97
1"
#98
0"
#100
1!
#101
1"
#102
0"
#104
0!
#105
1"
#106
0"
#108
1!
#109
1"
#110
0"
#112
0!
#113
1"
#114
0"
#116
1!
#117
1"
#118
0"
#120
0!
#121
1"
#122
0"
#124
1!
#125
1"
#126
0"
#128
0!
#129
1"
#130
0"
#132
1!
#133
1"
#134
0"
#136
0!
#137
1"
#138
0"
#140
1!
#141
1"
#142
0"
#144
0!
#145
1"
#146
0"
#148
1!
#149
1"
#150
0"
#152
0!
#153
1"
#154
0"
#156
1!
#157
1"
#158
0"
#160
0!
#161
1"
#162
0"
#164
1!
#165
1"
#166
0"
#168
0!
#169
1"
#170
0"
#172
1!
#173
1"
#174
0"
#176
0!
#177
1"
#178
0"
#180
1!
#181
1"
#182
0"
#184
0!
#185
1"
#186
0"
#188
1!
#189
1"
#190
0"
#192
0!
#193
1"
#194
0"
#196
1!
#197
1"
#198
0"
#200
0!
#201
1"
#202
0"
#204
1!
#205
1"
#206
0"
#208
0!
#209
1"
#210
0"
#212
1!
#213
1"
#214
0"
#216
0!
#217
1"
#218
0"
#220
1!
#221
1"
#222
0"
#224
0!
#225
1"
#226
0"
#228
1!
#229
1"
#230
0"
#232
0!
#233
1"
#234
0"
#236
1!
#237
1"
#238
0"
