G09/Verilog/G0902.vcd
$date
	Sun Sep 29 16:42:31 2024
$end
$version
	Icarus Verilog
$end
$timescale
	1s
$end
$scope module G0902 $end
$var wire 1 ! clk $end
$upscope $end
$scope module G0902 $end
$var wire 1 " p1 $end
$upscope $end
$scope module G0902 $end
$var wire 1 # p2 $end
$upscope $end
$scope module G0902 $end
$var wire 1 $ p3 $end
$upscope $end
$enddefinitions $end
$comment Show the parameter values. $end
$dumpall
$end
#0
$dumpvars
x$
x#
1"
0!
$end
#1
1#
1!
#2
1$
0!
#3
1!
0"
#4
0!
#5
1!
#6
0!
1"
0#
#7
1#
1!
#8
0!
#9
1!
1"
#10
0!
#11
1!
#12
0!
0"
0#
#13
1#
1!
#14
0!
#15
1!
1"
#16
0!
#17
1!
0$
#18
1$
0!
1"
0#
#19
1#
1!
#20
0!
#21
1!
0"
#22
0!
#23
1!
#24
0!
1"
0#
#25
1#
1!
#26
0!
#27
1!
1"
#28
0!
#29
1!
#30
0!
0"
0#
#31
1#
1!
#32
0!
#33
1!
1"
0$
#34
1$
0!
#35
1!
#36
0!
1"
0#
#37
1#
1!
#38
0!
#39
1!
0"
#40
0!
#41
1!
#42
0!
1"
0#
#43
1#
1!
#44
0!
#45
1!
1"
#46
0!
#47
1!
#48
0!
0"
0#
#49
1#
1!
0$
#50
1$
0!
#51
1!
1"
#52
0!
#53
1!
#54
0!
1"
0#
#55
1#
1!
#56
0!
#57
1!
0"
#58
0!
#59
1!
#60
0!
1"
0#
#61
1#
1!
#62
0!
#63
1!
1"
#64
0!
#65
1!
0$
#66
1$
0!
0"
0#
#67
1#
1!
#68
0!
#69
1!
1"
#70
0!
#71
1!
#72
0!
1"
0#
#73
1#
1!
#74
0!
#75
1!
0"
#76
0!
#77
1!
#78
0!
1"
0#
#79
1#
1!
#80
0!
#81
1!
1"
0$
#82
1$
0!
#83
1!
#84
0!
0"
0#
#85
1#
1!
#86
0!
#87
1!
1"
#88
0!
#89
1!
#90
0!
1"
0#
#91
1#
1!
#92
0!
#93
1!
0"
#94
0!
#95
1!
#96
0!
1"
0#
#97
1#
1!
0$
#98
1$
0!
#99
1!
1"
#100
0!
#101
1!
#102
0!
0"
0#
#103
1#
1!
#104
0!
#105
1!
1"
#106
0!
#107
1!
#108
0!
1"
0#
#109
1#
1!
#110
0!
#111
1!
0"
#112
0!
#113
1!
0$
#114
1$
0!
1"
0#
#115
1#
1!
#116
0!
#117
1!
1"
#118
0!
#119
1!
#120
0!
0"
0#
