G09/Verilog/G0903.vcd
$date
	Sun Sep 29 16:42:33 2024
$end
$version
	Icarus Verilog
$end
$timescale
	1s
$end
$scope module G0903 $end
$var wire 1 ! clk $end
$upscope $end
$scope module G0903 $end
$var wire 1 " p1 $end
$upscope $end
$enddefinitions $end
$comment Show the parameter values. $end
$dumpall
$end
#0
$dumpvars
0"
0!
$end
#1
1!
#2
0!
#3
1!
1"
#4
0!
#5
1!
#6
0!
0"
#7
1!
#8
0!
#9
1!
1"
#10
0!
#11
1!
#12
0!
0"
#13
1!
#14
0!
#15
1!
1"
#16
0!
#17
1!
#18
0!
0"
#19
1!
#20
0!
#21
1!
1"
#22
0!
#23
1!
#24
0!
0"
#25
1!
#26
0!
#27
1!
1"
#28
0!
#29
1!
#30
0!
0"
#31
1!
#32
0!
#33
1!
1"
#34
0!
#35
1!
#36
0!
0"
#37
1!
#38
0!
#39
1!
1"
#40
0!
#41
1!
#42
0!
0"
#43
1!
#44
0!
#45
1!
1"
#46
0!
#47
1!
#48
0!
0"
#49
1!
#50
0!
#51
1!
1"
#52
0!
#53
1!
#54
0!
0"
#55
1!
#56
0!
#57
1!
1"
#58
0!
#59
1!
#60
0!
0"
#61
1!
#62
0!
#63
1!
1"
#64
0!
#65
1!
#66
0!
0"
#67
1!
#68
0!
#69
1!
1"
#70
0!
#71
1!
#72
0!
0"
#73
1!
#74
0!
#75
1!
1"
#76
0!
#77
1!
#78
0!
0"
#79
1!
#80
0!
#81
1!
1"
#82
0!
#83
1!
#84
0!
0"
#85
1!
#86
0!
#87
1!
1"
#88
0!
#89
1!
#90
0!
0"
#91
1!
#92
0!
#93
1!
1"
#94
0!
#95
1!
#96
0!
0"
#97
1!
#98
0!
#99
1!
1"
#100
0!
#101
1!
#102
0!
0"
#103
1!
#104
0!
#105
1!
1"
#106
0!
#107
1!
#108
0!
0"
#109
1!
#110
0!
#111
1!
1"
#112
0!
#113
1!
#114
0!
0"
#115
1!
#116
0!
#117
1!
1"
#118
0!
#119
1!
#120
0!
0"
#121
1!
#122
0!
#123
1!
1"
#124
0!
#125
1!
#126
0!
0"
#127
1!
#128
0!
#129
1!
1"
#130
0!
#131
1!
#132
0!
0"
#133
1!
#134
0!
#135
1!
1"
#136
0!
#137
1!
#138
0!
0"
#139
1!
#140
0!
#141
1!
1"
#142
0!
#143
1!
#144
0!
0"
#145
1!
#146
0!
#147
1!
1"
#148
0!
#149
1!
#150
0!
0"
#151
1!
#152
0!
#153
1!
1"
#154
0!
#155
1!
#156
0!
0"
#157
1!
#158
0!
#159
1!
1"
#160
0!
#161
1!
#162
0!
0"
#163
1!
#164
0!
#165
1!
1"
#166
0!
#167
1!
#168
0!
0"
#169
1!
#170
0!
#171
1!
1"
#172
0!
#173
1!
#174
0!
0"
#175
1!
#176
0!
#177
1!
1"
#178
0!
#179
1!
#180
0!
0"
#181
1!
#182
0!
#183
1!
1"
#184
0!
#185
1!
#186
0!
0"
#187
1!
#188
0!
#189
1!
1"
#190
0!
#191
1!
#192
0!
0"
#193
1!
#194
0!
#195
1!
1"
#196
0!
#197
1!
#198
0!
0"
#199
1!
#200
0!
#201
1!
1"
#202
0!
#203
1!
#204
0!
0"
#205
1!
#206
0!
#207
1!
1"
#208
0!
#209
1!
#210
0!
0"
#211
1!
#212
0!
#213
1!
1"
#214
0!
#215
1!
#216
0!
0"
#217
1!
#218
0!
#219
1!
1"
#220
0!
#221
1!
#222
0!
0"
#223
1!
#224
0!
#225
1!
1"
#226
0!
#227
1!
#228
0!
0"
#229
1!
#230
0!
#231
1!
1"
#232
0!
#233
1!
#234
0!
0"
#235
1!
#236
0!
#237
1!
1"
#238
0!
#239
1!
#240
0!
0"
